<?xml version="1.0" standalone="no"?>
<!DOCTYPE svg PUBLIC "-//W3C//DTD SVG 1.1//EN" "http://www.w3.org/Graphics/SVG/1.1/DTD/svg11.dtd" >
<svg xmlns="http://www.w3.org/2000/svg">
<metadata>Generated by IcoMoon</metadata>
<defs>
<font id="Lodge-icons" horiz-adv-x="1024">
<font-face units-per-em="1024" ascent="960" descent="-64" />
<missing-glyph horiz-adv-x="1024" />
<glyph unicode="&#x20;" horiz-adv-x="512" d="" />
<glyph unicode="&#xe900;" glyph-name="ads" d="M934.272 534.784l-399.488 399.36c-23.552 23.424-61.568 23.168-84.992 0-23.424-23.424-23.424-61.44 0-84.992l399.488-399.232c23.424-23.424 61.44-23.424 84.864 0s23.424 61.44 0.128 84.864zM420.096 794.24l-2.944-14.976c-21.248-105.984-72.576-206.592-142.208-288l217.216-217.344c81.664 69.632 180.864 122.368 286.848 143.616l14.976 2.944-373.888 373.76zM235.136 445.952l-148.608-148.48c-34.944-34.944-35.2-92.032 0-127.232l84.864-84.864c34.944-34.944 92.032-35.2 127.232 0l148.48 148.48-211.968 212.096zM256.384 212.48c-11.776-11.776-30.848-11.776-42.368 0s-11.776 30.848 0 42.368l42.368 42.368c11.776 11.776 30.848 11.776 42.368 0 11.648-11.776 11.776-30.848 0-42.368l-42.368-42.368zM572.544 69.248l40.832 40.832c35.2 35.2 35.2 92.16 0 127.232l-30.464 30.464c-16.768-11.264-32.768-23.424-48.384-36.608l36.224-36.224c11.648-11.648 11.776-30.592 0-42.368l-41.344-41.344-61.056 59.008-84.864-84.864 136.192-131.84c23.168-23.168 61.44-23.424 84.864 0s23.424 61.44 0 84.864l-32 30.848zM693.76 960c-16.64 0-29.952-13.44-29.952-29.952v-60.032c0-16.64 13.44-29.952 29.952-29.952 16.64 0 29.952 13.44 29.952 29.952v60.032c0.128 16.512-13.312 29.952-29.952 29.952zM933.76 720h-60.032c-16.64 0-29.952-13.44-29.952-29.952s13.44-29.952 29.952-29.952h60.032c16.64 0 29.952 13.44 29.952 29.952s-13.312 29.952-29.952 29.952zM894.976 891.136c-11.776 11.776-30.848 11.776-42.368 0l-60.032-60.032c-11.776-11.776-11.776-30.848 0-42.368 11.776-11.648 30.848-11.776 42.368 0l60.032 60.032c11.648 11.776 11.648 30.592 0 42.368z" />
<glyph unicode="&#xe901;" glyph-name="edit-profile" d="M512 960c-281.6 0-512-230.4-512-512s230.4-512 512-512 512 230.4 512 512-230.4 512-512 512zM512 806.4c87.040 0 153.6-66.56 153.6-153.6s-66.56-153.6-153.6-153.6-153.6 66.56-153.6 153.6 66.56 153.6 153.6 153.6zM512 79.36c-128 0-240.64 66.56-307.2 163.84 0 102.4 204.8 158.72 307.2 158.72s307.2-56.32 307.2-158.72c-66.56-97.28-179.2-163.84-307.2-163.84z" />
<glyph unicode="&#xe902;" glyph-name="explore-tab" d="M795.904 477.696c-53.76 0-97.28-43.648-97.28-97.28 0-12.8 10.496-23.296 23.296-23.296s23.296 10.496 23.296 23.296c0 27.904 22.912 50.816 50.816 50.816 12.8 0 23.296 10.496 23.296 23.296-0.128 12.928-10.624 23.168-23.424 23.168zM954.496 544.768c-5.632 5.504-11.776 10.752-18.048 15.744v0l-86.144 73.088c-33.152 23.552-72.704 38.4-115.456 41.344l4.608-4.608-52.352 52.48h-0.384c-14.464 13.184-34.048 21.376-55.296 21.376-36.48 0-67.456-23.68-77.952-56.704-10.496 6.784-22.656 10.752-35.968 11.52-2.048 0.256-4.352 0.256-6.528 0.256-14.848 0-28.8-4.352-40.576-11.776-10.752 32.768-41.6 56.448-77.952 56.448-21.248 0-40.576-7.936-55.296-21.376h-0.384l-47.744-47.872c-42.88-2.944-82.56-18.048-115.456-41.344l-86.144-73.088c-6.272-4.864-12.416-10.112-18.048-15.744-42.752-41.6-69.376-99.712-69.376-164.224 0-125.952 102.528-228.48 228.48-228.48 116.352 0 212.736 87.552 226.56 200.32 16.768-9.6 36.352-15.104 56.96-15.104 20.736 0 40.064 5.504 56.96 15.104 14.080-112.512 110.208-200.192 226.56-200.192 125.952 0 228.48 102.528 228.48 228.48 0.256 64.512-26.496 122.752-69.504 164.352zM228.48 224.384c-86.144 0-155.776 69.76-155.776 155.776s69.76 155.776 155.776 155.776 155.776-69.76 155.776-155.776c0.256-85.76-69.632-155.776-155.776-155.776zM512.256 401.664c-27.904 0-50.56 22.656-50.56 50.56s22.656 50.56 50.56 50.56 50.56-22.656 50.56-50.56c0-27.904-22.656-50.56-50.56-50.56zM795.904 224.384c-86.144 0-155.776 69.76-155.776 155.776s69.76 155.776 155.776 155.776 155.776-69.76 155.776-155.776c0.128-85.76-69.632-155.776-155.776-155.776zM228.48 477.696c-53.76 0-97.28-43.648-97.28-97.28 0-12.8 10.496-23.296 23.296-23.296s23.296 10.496 23.296 23.296c0 27.904 22.912 50.816 50.816 50.816 12.8 0 23.296 10.496 23.296 23.296-0.128 12.928-10.624 23.168-23.424 23.168z" />
<glyph unicode="&#xe903;" glyph-name="favorite" d="M512-23.040l-71.68 71.68c-266.24 235.52-440.32 394.24-440.32 588.8 0 158.72 122.88 281.6 281.6 281.6 87.040 0 174.080-40.96 230.4-107.52 56.32 66.56 143.36 107.52 230.4 107.52 158.72 0 281.6-122.88 281.6-281.6 0-194.56-174.080-353.28-440.32-588.8l-71.68-71.68z" />
<glyph unicode="&#xe904;" glyph-name="help" d="M505.216 960c-282.752-3.84-508.928-236.16-505.216-518.912 3.84-282.624 236.16-508.8 518.912-505.088 282.752 3.84 508.928 236.16 505.088 518.912-3.84 282.624-236.16 508.8-518.784 505.088zM503.68 136.32h-2.816c-43.52 1.28-74.24 33.408-72.96 76.288 1.152 42.112 32.64 72.832 74.752 72.832h2.56c44.8-1.28 75.136-33.024 73.856-77.184-1.408-42.368-32.256-71.936-75.392-71.936zM686.848 499.84c-10.24-14.592-32.768-32.64-61.184-54.656l-31.232-21.632c-17.152-13.312-27.52-25.856-31.36-38.272-3.072-9.728-4.608-12.288-4.864-32v-4.992h-119.296l0.384 10.112c1.408 41.472 2.432 65.92 19.712 86.016 27.008 31.616 86.528 70.016 88.96 71.68 8.576 6.4 15.744 13.696 21.12 21.504 12.544 17.28 18.048 30.848 18.048 44.16 0 18.56-5.504 35.712-16.384 50.944-10.496 14.72-30.336 22.144-59.008 22.144-28.544 0-48-9.088-59.648-27.52-12.032-19.072-18.048-39.040-18.048-59.52v-5.12h-123.008l0.256 5.248c3.2 75.392 30.080 129.536 79.872 161.28 31.36 20.096 70.272 30.336 115.712 30.336 59.52 0 109.696-14.464 149.248-43.008 40.064-28.928 60.416-72.192 60.416-128.64-0.128-31.488-10.112-61.056-29.696-88.064z" />
<glyph unicode="&#xe905;" glyph-name="home-tab" d="M1011.712 530.176l-480.256 383.488c-11.904 9.472-28.8 9.472-40.704 0l-478.464-382.080c-14.080-11.264-16.384-31.744-5.12-45.824s31.744-16.384 45.824-5.12l104.832 83.712v-556.416c0-13.056 7.808-24.832 19.84-29.952 4.096-1.792 8.448-2.56 12.8-2.56 8.192 0 16.384 3.072 22.528 9.088l184.32 176.256h436.352c18.048 0 32.64 14.592 32.64 32.64v369.536l104.832-83.712c6.016-4.864 13.184-7.168 20.352-7.168 9.6 0 19.072 4.224 25.472 12.288 11.136 14.080 8.832 34.56-5.248 45.824zM801.024 225.792h-416.896c-8.448 0-16.512-3.2-22.528-9.088l-138.624-132.608v532.224l288.128 230.144 289.792-231.424v-389.248zM510.464 869.248l-322.432-254.592v-568.576l220.672 144.256h424.32v441.344l-322.56 237.568zM709.376 341.248h-386.432c-16.64 0-30.208 13.568-30.208 30.208s13.568 30.208 30.208 30.208h386.304c16.64 0 30.208-13.568 30.208-30.208 0.128-16.64-13.44-30.208-30.080-30.208zM709.376 474.112h-386.432c-16.64 0-30.208 13.568-30.208 30.208s13.568 30.208 30.208 30.208h386.304c16.64 0 30.208-13.568 30.208-30.208 0.128-16.768-13.44-30.208-30.080-30.208z" />
<glyph unicode="&#xe906;" glyph-name="login" d="M419.328 185.728l422.272 243.84c6.656 3.84 10.752 10.88 10.752 18.56s-4.096 14.72-10.752 18.56l-422.272 243.584c-6.656 3.84-14.848 3.84-21.376 0-6.656-3.84-10.624-10.88-10.624-18.432v-113.536h-364.544c-11.776 0-21.376-9.6-21.376-21.376v-217.728c0-11.904 9.6-21.376 21.376-21.376h364.416v-113.536c0-7.68 4.096-14.72 10.624-18.56 3.328-1.92 7.040-2.816 10.752-2.816 3.712-0.128 7.424 0.768 10.752 2.816v0zM864.64 960h-436.224c-11.776 0-21.376-9.6-21.376-21.376v-64.128c0-11.776 9.6-21.376 21.376-21.376h436.096c28.16 0 51.072-22.912 51.072-51.072v-707.84c0-28.16-22.912-51.072-51.072-51.072h-436.096c-11.776 0-21.376-9.6-21.376-21.376v-64.256c0-11.776 9.6-21.376 21.376-21.376h436.096c87.168 0 158.080 71.040 158.080 158.080v707.84c0.128 87.040-70.784 157.952-157.952 157.952v0z" />
<glyph unicode="&#xe907;" glyph-name="logout" d="M762.112 698.112c-18.176 18.176-47.616 18.176-65.792 0s-18.176-47.616 0-65.792l137.728-137.728h-570.24c-25.728 0-46.592-20.864-46.592-46.592s20.864-46.592 46.592-46.592h570.24l-137.728-137.728c-18.176-18.176-18.176-47.616 0-65.792 9.088-9.088 20.992-13.568 32.896-13.568s23.808 4.48 32.896 13.568l217.216 217.216c18.176 18.176 18.176 47.616 0 65.792l-217.216 217.216zM481.024-64c25.728 0 46.592 20.864 46.592 46.592s-20.864 46.592-46.592 46.592h-356.864v837.76h356.864c25.728 0 46.592 20.864 46.592 46.592s-20.992 46.464-46.592 46.464h-403.456c-25.728 0-46.592-20.864-46.592-46.592v-930.944c0-25.728 20.864-46.592 46.592-46.592h403.456z" />
<glyph unicode="&#xe908;" glyph-name="more-tab" d="M128 576c-70.4 0-128-57.6-128-128s57.6-128 128-128 128 57.6 128 128-57.6 128-128 128zM896 576c-70.4 0-128-57.6-128-128s57.6-128 128-128 128 57.6 128 128-57.6 128-128 128zM512 576c-70.4 0-128-57.6-128-128s57.6-128 128-128 128 57.6 128 128-57.6 128-128 128z" />
<glyph unicode="&#xe909;" glyph-name="profile" d="M511.872 448.128c102.528 0 186.112 83.584 186.112 186.112 0 102.272-83.584 186.112-186.112 186.112-102.272 0-186.112-83.84-186.112-186.112 0-102.528 83.84-186.112 186.112-186.112v0zM511.872 354.944c-125.696 0-372.224-60.416-372.224-186.112v-93.184h744.704v93.184c0 125.696-246.784 186.112-372.48 186.112v0z" />
<glyph unicode="&#xe90a;" glyph-name="Register" d="M651.52 448.128c102.528 0 186.112 83.584 186.112 186.112 0 102.272-83.584 186.112-186.112 186.112-102.272 0-186.112-83.84-186.112-186.112 0-102.528 83.84-186.112 186.112-186.112v0zM232.704 541.056v139.776h-93.184v-139.776h-139.52v-92.928h139.52v-139.776h93.184v139.776h139.52v92.928h-139.52zM651.52 354.944c-125.696 0-372.224-60.416-372.224-186.112v-93.184h744.704v93.184c0 125.696-246.784 186.112-372.48 186.112v0z" />
<glyph unicode="&#xe90b;" glyph-name="supplier" d="M886.4 489.984c-74.752 0-135.552-59.52-137.6-133.76v-107.264h-473.6v107.264c-2.048 74.24-62.848 133.76-137.6 133.76-76.032 0-137.6-61.568-137.6-137.6s61.568-137.6 137.6-137.6c2.432 0 4.608 0.128 7.040 0.256 0 0 0.128-76.416 0.128-77.824 0-61.824 50.048-111.872 111.872-111.872h24.704v-32.256c0-6.912 5.632-12.416 12.416-12.416h82.816c6.912 0 12.416 5.632 12.416 12.416v32.256h246.016v-32.256c0-6.912 5.632-12.416 12.416-12.416h82.816c6.912 0 12.416 5.632 12.416 12.416v32.256h24.576c61.824 0 111.872 50.048 111.872 111.872 0 0.512 0 1.152 0 1.664v76.16c2.432-0.128 4.864-0.256 7.296-0.256 76.032 0 137.6 61.568 137.6 137.6s-61.568 137.6-137.6 137.6zM316.672 357.376v-66.944h390.528v66.944c2.688 97.664 81.408 174.080 179.072 174.080 2.816 0 5.632-0.128 8.448-0.256v10.752c0 206.208-167.168 373.504-373.504 373.504h-18.688c-206.080 0.128-373.248-167.040-373.248-373.376v-10.752c2.816 0.128 5.632 0.256 8.448 0.256 97.536 0 176.256-76.544 178.944-174.208z" />
</font></defs></svg>